Projekat/tooling/transcript
# vsim -do ./config/run.tcl -lib work -c -wlf ./waveform.wlf work.top 
# Loading work.top
# Loading work.alu
# Loading work.register
# do ./config/run.tcl 
# time =    0, cl = x, ld = x, in =  x, inc = x, dec = x, sr = x, ir = x, sl = x, il = x, out =  0
# oc = 000, a =  0, b =  0, f =  0
# oc = 000, a =  0, b =  1, f =  1
# oc = 000, a =  0, b =  2, f =  2
# oc = 000, a =  0, b =  3, f =  3
# oc = 000, a =  0, b =  4, f =  4
# oc = 000, a =  0, b =  5, f =  5
# oc = 000, a =  0, b =  6, f =  6
# oc = 000, a =  0, b =  7, f =  7
# oc = 000, a =  0, b =  8, f =  8
# oc = 000, a =  0, b =  9, f =  9
# oc = 000, a =  0, b = 10, f = 10
# oc = 000, a =  0, b = 11, f = 11
# oc = 000, a =  0, b = 12, f = 12
# oc = 000, a =  0, b = 13, f = 13
# oc = 000, a =  0, b = 14, f = 14
# oc = 000, a =  0, b = 15, f = 15
# oc = 000, a =  1, b =  0, f =  1
# oc = 000, a =  1, b =  1, f =  2
# oc = 000, a =  1, b =  2, f =  3
# oc = 000, a =  1, b =  3, f =  4
# oc = 000, a =  1, b =  4, f =  5
# oc = 000, a =  1, b =  5, f =  6
# oc = 000, a =  1, b =  6, f =  7
# oc = 000, a =  1, b =  7, f =  8
# oc = 000, a =  1, b =  8, f =  9
# oc = 000, a =  1, b =  9, f = 10
# oc = 000, a =  1, b = 10, f = 11
# oc = 000, a =  1, b = 11, f = 12
# oc = 000, a =  1, b = 12, f = 13
# oc = 000, a =  1, b = 13, f = 14
# oc = 000, a =  1, b = 14, f = 15
# oc = 000, a =  1, b = 15, f =  0
# oc = 000, a =  2, b =  0, f =  2
# oc = 000, a =  2, b =  1, f =  3
# oc = 000, a =  2, b =  2, f =  4
# oc = 000, a =  2, b =  3, f =  5
# oc = 000, a =  2, b =  4, f =  6
# oc = 000, a =  2, b =  5, f =  7
# oc = 000, a =  2, b =  6, f =  8
# oc = 000, a =  2, b =  7, f =  9
# oc = 000, a =  2, b =  8, f = 10
# oc = 000, a =  2, b =  9, f = 11
# oc = 000, a =  2, b = 10, f = 12
# oc = 000, a =  2, b = 11, f = 13
# oc = 000, a =  2, b = 12, f = 14
# oc = 000, a =  2, b = 13, f = 15
# oc = 000, a =  2, b = 14, f =  0
# oc = 000, a =  2, b = 15, f =  1
# oc = 000, a =  3, b =  0, f =  3
# oc = 000, a =  3, b =  1, f =  4
# oc = 000, a =  3, b =  2, f =  5
# oc = 000, a =  3, b =  3, f =  6
# oc = 000, a =  3, b =  4, f =  7
# oc = 000, a =  3, b =  5, f =  8
# oc = 000, a =  3, b =  6, f =  9
# oc = 000, a =  3, b =  7, f = 10
# oc = 000, a =  3, b =  8, f = 11
# oc = 000, a =  3, b =  9, f = 12
# oc = 000, a =  3, b = 10, f = 13
# oc = 000, a =  3, b = 11, f = 14
# oc = 000, a =  3, b = 12, f = 15
# oc = 000, a =  3, b = 13, f =  0
# oc = 000, a =  3, b = 14, f =  1
# oc = 000, a =  3, b = 15, f =  2
# oc = 000, a =  4, b =  0, f =  4
# oc = 000, a =  4, b =  1, f =  5
# oc = 000, a =  4, b =  2, f =  6
# oc = 000, a =  4, b =  3, f =  7
# oc = 000, a =  4, b =  4, f =  8
# oc = 000, a =  4, b =  5, f =  9
# oc = 000, a =  4, b =  6, f = 10
# oc = 000, a =  4, b =  7, f = 11
# oc = 000, a =  4, b =  8, f = 12
# oc = 000, a =  4, b =  9, f = 13
# oc = 000, a =  4, b = 10, f = 14
# oc = 000, a =  4, b = 11, f = 15
# oc = 000, a =  4, b = 12, f =  0
# oc = 000, a =  4, b = 13, f =  1
# oc = 000, a =  4, b = 14, f =  2
# oc = 000, a =  4, b = 15, f =  3
# oc = 000, a =  5, b =  0, f =  5
# oc = 000, a =  5, b =  1, f =  6
# oc = 000, a =  5, b =  2, f =  7
# oc = 000, a =  5, b =  3, f =  8
# oc = 000, a =  5, b =  4, f =  9
# oc = 000, a =  5, b =  5, f = 10
# oc = 000, a =  5, b =  6, f = 11
# oc = 000, a =  5, b =  7, f = 12
# oc = 000, a =  5, b =  8, f = 13
# oc = 000, a =  5, b =  9, f = 14
# oc = 000, a =  5, b = 10, f = 15
# oc = 000, a =  5, b = 11, f =  0
# oc = 000, a =  5, b = 12, f =  1
# oc = 000, a =  5, b = 13, f =  2
# oc = 000, a =  5, b = 14, f =  3
# oc = 000, a =  5, b = 15, f =  4
# oc = 000, a =  6, b =  0, f =  6
# oc = 000, a =  6, b =  1, f =  7
# oc = 000, a =  6, b =  2, f =  8
# oc = 000, a =  6, b =  3, f =  9
# oc = 000, a =  6, b =  4, f = 10
# oc = 000, a =  6, b =  5, f = 11
# oc = 000, a =  6, b =  6, f = 12
# oc = 000, a =  6, b =  7, f = 13
# oc = 000, a =  6, b =  8, f = 14
# oc = 000, a =  6, b =  9, f = 15
# oc = 000, a =  6, b = 10, f =  0
# oc = 000, a =  6, b = 11, f =  1
# oc = 000, a =  6, b = 12, f =  2
# oc = 000, a =  6, b = 13, f =  3
# oc = 000, a =  6, b = 14, f =  4
# oc = 000, a =  6, b = 15, f =  5
# oc = 000, a =  7, b =  0, f =  7
# oc = 000, a =  7, b =  1, f =  8
# oc = 000, a =  7, b =  2, f =  9
# oc = 000, a =  7, b =  3, f = 10
# oc = 000, a =  7, b =  4, f = 11
# oc = 000, a =  7, b =  5, f = 12
# oc = 000, a =  7, b =  6, f = 13
# oc = 000, a =  7, b =  7, f = 14
# oc = 000, a =  7, b =  8, f = 15
# oc = 000, a =  7, b =  9, f =  0
# oc = 000, a =  7, b = 10, f =  1
# oc = 000, a =  7, b = 11, f =  2
# oc = 000, a =  7, b = 12, f =  3
# oc = 000, a =  7, b = 13, f =  4
# oc = 000, a =  7, b = 14, f =  5
# oc = 000, a =  7, b = 15, f =  6
# oc = 000, a =  8, b =  0, f =  8
# oc = 000, a =  8, b =  1, f =  9
# oc = 000, a =  8, b =  2, f = 10
# oc = 000, a =  8, b =  3, f = 11
# oc = 000, a =  8, b =  4, f = 12
# oc = 000, a =  8, b =  5, f = 13
# oc = 000, a =  8, b =  6, f = 14
# oc = 000, a =  8, b =  7, f = 15
# oc = 000, a =  8, b =  8, f =  0
# oc = 000, a =  8, b =  9, f =  1
# oc = 000, a =  8, b = 10, f =  2
# oc = 000, a =  8, b = 11, f =  3
# oc = 000, a =  8, b = 12, f =  4
# oc = 000, a =  8, b = 13, f =  5
# oc = 000, a =  8, b = 14, f =  6
# oc = 000, a =  8, b = 15, f =  7
# oc = 000, a =  9, b =  0, f =  9
# oc = 000, a =  9, b =  1, f = 10
# oc = 000, a =  9, b =  2, f = 11
# oc = 000, a =  9, b =  3, f = 12
# oc = 000, a =  9, b =  4, f = 13
# oc = 000, a =  9, b =  5, f = 14
# oc = 000, a =  9, b =  6, f = 15
# oc = 000, a =  9, b =  7, f =  0
# oc = 000, a =  9, b =  8, f =  1
# oc = 000, a =  9, b =  9, f =  2
# oc = 000, a =  9, b = 10, f =  3
# oc = 000, a =  9, b = 11, f =  4
# oc = 000, a =  9, b = 12, f =  5
# oc = 000, a =  9, b = 13, f =  6
# oc = 000, a =  9, b = 14, f =  7
# oc = 000, a =  9, b = 15, f =  8
# oc = 000, a = 10, b =  0, f = 10
# oc = 000, a = 10, b =  1, f = 11
# oc = 000, a = 10, b =  2, f = 12
# oc = 000, a = 10, b =  3, f = 13
# oc = 000, a = 10, b =  4, f = 14
# oc = 000, a = 10, b =  5, f = 15
# oc = 000, a = 10, b =  6, f =  0
# oc = 000, a = 10, b =  7, f =  1
# oc = 000, a = 10, b =  8, f =  2
# oc = 000, a = 10, b =  9, f =  3
# oc = 000, a = 10, b = 10, f =  4
# oc = 000, a = 10, b = 11, f =  5
# oc = 000, a = 10, b = 12, f =  6
# oc = 000, a = 10, b = 13, f =  7
# oc = 000, a = 10, b = 14, f =  8
# oc = 000, a = 10, b = 15, f =  9
# oc = 000, a = 11, b =  0, f = 11
# oc = 000, a = 11, b =  1, f = 12
# oc = 000, a = 11, b =  2, f = 13
# oc = 000, a = 11, b =  3, f = 14
# oc = 000, a = 11, b =  4, f = 15
# oc = 000, a = 11, b =  5, f =  0
# oc = 000, a = 11, b =  6, f =  1
# oc = 000, a = 11, b =  7, f =  2
# oc = 000, a = 11, b =  8, f =  3
# oc = 000, a = 11, b =  9, f =  4
# oc = 000, a = 11, b = 10, f =  5
# oc = 000, a = 11, b = 11, f =  6
# oc = 000, a = 11, b = 12, f =  7
# oc = 000, a = 11, b = 13, f =  8
# oc = 000, a = 11, b = 14, f =  9
# oc = 000, a = 11, b = 15, f = 10
# oc = 000, a = 12, b =  0, f = 12
# oc = 000, a = 12, b =  1, f = 13
# oc = 000, a = 12, b =  2, f = 14
# oc = 000, a = 12, b =  3, f = 15
# oc = 000, a = 12, b =  4, f =  0
# oc = 000, a = 12, b =  5, f =  1
# oc = 000, a = 12, b =  6, f =  2
# oc = 000, a = 12, b =  7, f =  3
# oc = 000, a = 12, b =  8, f =  4
# oc = 000, a = 12, b =  9, f =  5
# oc = 000, a = 12, b = 10, f =  6
# oc = 000, a = 12, b = 11, f =  7
# oc = 000, a = 12, b = 12, f =  8
# oc = 000, a = 12, b = 13, f =  9
# oc = 000, a = 12, b = 14, f = 10
# oc = 000, a = 12, b = 15, f = 11
# oc = 000, a = 13, b =  0, f = 13
# oc = 000, a = 13, b =  1, f = 14
# oc = 000, a = 13, b =  2, f = 15
# oc = 000, a = 13, b =  3, f =  0
# oc = 000, a = 13, b =  4, f =  1
# oc = 000, a = 13, b =  5, f =  2
# oc = 000, a = 13, b =  6, f =  3
# oc = 000, a = 13, b =  7, f =  4
# oc = 000, a = 13, b =  8, f =  5
# oc = 000, a = 13, b =  9, f =  6
# oc = 000, a = 13, b = 10, f =  7
# oc = 000, a = 13, b = 11, f =  8
# oc = 000, a = 13, b = 12, f =  9
# oc = 000, a = 13, b = 13, f = 10
# oc = 000, a = 13, b = 14, f = 11
# oc = 000, a = 13, b = 15, f = 12
# oc = 000, a = 14, b =  0, f = 14
# oc = 000, a = 14, b =  1, f = 15
# oc = 000, a = 14, b =  2, f =  0
# oc = 000, a = 14, b =  3, f =  1
# oc = 000, a = 14, b =  4, f =  2
# oc = 000, a = 14, b =  5, f =  3
# oc = 000, a = 14, b =  6, f =  4
# oc = 000, a = 14, b =  7, f =  5
# oc = 000, a = 14, b =  8, f =  6
# oc = 000, a = 14, b =  9, f =  7
# oc = 000, a = 14, b = 10, f =  8
# oc = 000, a = 14, b = 11, f =  9
# oc = 000, a = 14, b = 12, f = 10
# oc = 000, a = 14, b = 13, f = 11
# oc = 000, a = 14, b = 14, f = 12
# oc = 000, a = 14, b = 15, f = 13
# oc = 000, a = 15, b =  0, f = 15
# oc = 000, a = 15, b =  1, f =  0
# oc = 000, a = 15, b =  2, f =  1
# oc = 000, a = 15, b =  3, f =  2
# oc = 000, a = 15, b =  4, f =  3
# oc = 000, a = 15, b =  5, f =  4
# oc = 000, a = 15, b =  6, f =  5
# oc = 000, a = 15, b =  7, f =  6
# oc = 000, a = 15, b =  8, f =  7
# oc = 000, a = 15, b =  9, f =  8
# oc = 000, a = 15, b = 10, f =  9
# oc = 000, a = 15, b = 11, f = 10
# oc = 000, a = 15, b = 12, f = 11
# oc = 000, a = 15, b = 13, f = 12
# oc = 000, a = 15, b = 14, f = 13
# oc = 000, a = 15, b = 15, f = 14
# oc = 001, a =  0, b =  0, f =  0
# oc = 001, a =  0, b =  1, f = 15
# oc = 001, a =  0, b =  2, f = 14
# oc = 001, a =  0, b =  3, f = 13
# oc = 001, a =  0, b =  4, f = 12
# oc = 001, a =  0, b =  5, f = 11
# oc = 001, a =  0, b =  6, f = 10
# oc = 001, a =  0, b =  7, f =  9
# oc = 001, a =  0, b =  8, f =  8
# oc = 001, a =  0, b =  9, f =  7
# oc = 001, a =  0, b = 10, f =  6
# oc = 001, a =  0, b = 11, f =  5
# oc = 001, a =  0, b = 12, f =  4
# oc = 001, a =  0, b = 13, f =  3
# oc = 001, a =  0, b = 14, f =  2
# oc = 001, a =  0, b = 15, f =  1
# oc = 001, a =  1, b =  0, f =  1
# oc = 001, a =  1, b =  1, f =  0
# oc = 001, a =  1, b =  2, f = 15
# oc = 001, a =  1, b =  3, f = 14
# oc = 001, a =  1, b =  4, f = 13
# oc = 001, a =  1, b =  5, f = 12
# oc = 001, a =  1, b =  6, f = 11
# oc = 001, a =  1, b =  7, f = 10
# oc = 001, a =  1, b =  8, f =  9
# oc = 001, a =  1, b =  9, f =  8
# oc = 001, a =  1, b = 10, f =  7
# oc = 001, a =  1, b = 11, f =  6
# oc = 001, a =  1, b = 12, f =  5
# oc = 001, a =  1, b = 13, f =  4
# oc = 001, a =  1, b = 14, f =  3
# oc = 001, a =  1, b = 15, f =  2
# oc = 001, a =  2, b =  0, f =  2
# oc = 001, a =  2, b =  1, f =  1
# oc = 001, a =  2, b =  2, f =  0
# oc = 001, a =  2, b =  3, f = 15
# oc = 001, a =  2, b =  4, f = 14
# oc = 001, a =  2, b =  5, f = 13
# oc = 001, a =  2, b =  6, f = 12
# oc = 001, a =  2, b =  7, f = 11
# oc = 001, a =  2, b =  8, f = 10
# oc = 001, a =  2, b =  9, f =  9
# oc = 001, a =  2, b = 10, f =  8
# oc = 001, a =  2, b = 11, f =  7
# oc = 001, a =  2, b = 12, f =  6
# oc = 001, a =  2, b = 13, f =  5
# oc = 001, a =  2, b = 14, f =  4
# oc = 001, a =  2, b = 15, f =  3
# oc = 001, a =  3, b =  0, f =  3
# oc = 001, a =  3, b =  1, f =  2
# oc = 001, a =  3, b =  2, f =  1
# oc = 001, a =  3, b =  3, f =  0
# oc = 001, a =  3, b =  4, f = 15
# oc = 001, a =  3, b =  5, f = 14
# oc = 001, a =  3, b =  6, f = 13
# oc = 001, a =  3, b =  7, f = 12
# oc = 001, a =  3, b =  8, f = 11
# oc = 001, a =  3, b =  9, f = 10
# oc = 001, a =  3, b = 10, f =  9
# oc = 001, a =  3, b = 11, f =  8
# oc = 001, a =  3, b = 12, f =  7
# oc = 001, a =  3, b = 13, f =  6
# oc = 001, a =  3, b = 14, f =  5
# oc = 001, a =  3, b = 15, f =  4
# oc = 001, a =  4, b =  0, f =  4
# oc = 001, a =  4, b =  1, f =  3
# oc = 001, a =  4, b =  2, f =  2
# oc = 001, a =  4, b =  3, f =  1
# oc = 001, a =  4, b =  4, f =  0
# oc = 001, a =  4, b =  5, f = 15
# oc = 001, a =  4, b =  6, f = 14
# oc = 001, a =  4, b =  7, f = 13
# oc = 001, a =  4, b =  8, f = 12
# oc = 001, a =  4, b =  9, f = 11
# oc = 001, a =  4, b = 10, f = 10
# oc = 001, a =  4, b = 11, f =  9
# oc = 001, a =  4, b = 12, f =  8
# oc = 001, a =  4, b = 13, f =  7
# oc = 001, a =  4, b = 14, f =  6
# oc = 001, a =  4, b = 15, f =  5
# oc = 001, a =  5, b =  0, f =  5
# oc = 001, a =  5, b =  1, f =  4
# oc = 001, a =  5, b =  2, f =  3
# oc = 001, a =  5, b =  3, f =  2
# oc = 001, a =  5, b =  4, f =  1
# oc = 001, a =  5, b =  5, f =  0
# oc = 001, a =  5, b =  6, f = 15
# oc = 001, a =  5, b =  7, f = 14
# oc = 001, a =  5, b =  8, f = 13
# oc = 001, a =  5, b =  9, f = 12
# oc = 001, a =  5, b = 10, f = 11
# oc = 001, a =  5, b = 11, f = 10
# oc = 001, a =  5, b = 12, f =  9
# oc = 001, a =  5, b = 13, f =  8
# oc = 001, a =  5, b = 14, f =  7
# oc = 001, a =  5, b = 15, f =  6
# oc = 001, a =  6, b =  0, f =  6
# oc = 001, a =  6, b =  1, f =  5
# oc = 001, a =  6, b =  2, f =  4
# oc = 001, a =  6, b =  3, f =  3
# oc = 001, a =  6, b =  4, f =  2
# oc = 001, a =  6, b =  5, f =  1
# oc = 001, a =  6, b =  6, f =  0
# oc = 001, a =  6, b =  7, f = 15
# oc = 001, a =  6, b =  8, f = 14
# oc = 001, a =  6, b =  9, f = 13
# oc = 001, a =  6, b = 10, f = 12
# oc = 001, a =  6, b = 11, f = 11
# oc = 001, a =  6, b = 12, f = 10
# oc = 001, a =  6, b = 13, f =  9
# oc = 001, a =  6, b = 14, f =  8
# oc = 001, a =  6, b = 15, f =  7
# oc = 001, a =  7, b =  0, f =  7
# oc = 001, a =  7, b =  1, f =  6
# oc = 001, a =  7, b =  2, f =  5
# oc = 001, a =  7, b =  3, f =  4
# oc = 001, a =  7, b =  4, f =  3
# oc = 001, a =  7, b =  5, f =  2
# oc = 001, a =  7, b =  6, f =  1
# oc = 001, a =  7, b =  7, f =  0
# oc = 001, a =  7, b =  8, f = 15
# oc = 001, a =  7, b =  9, f = 14
# oc = 001, a =  7, b = 10, f = 13
# oc = 001, a =  7, b = 11, f = 12
# oc = 001, a =  7, b = 12, f = 11
# oc = 001, a =  7, b = 13, f = 10
# oc = 001, a =  7, b = 14, f =  9
# oc = 001, a =  7, b = 15, f =  8
# oc = 001, a =  8, b =  0, f =  8
# oc = 001, a =  8, b =  1, f =  7
# oc = 001, a =  8, b =  2, f =  6
# oc = 001, a =  8, b =  3, f =  5
# oc = 001, a =  8, b =  4, f =  4
# oc = 001, a =  8, b =  5, f =  3
# oc = 001, a =  8, b =  6, f =  2
# oc = 001, a =  8, b =  7, f =  1
# oc = 001, a =  8, b =  8, f =  0
# oc = 001, a =  8, b =  9, f = 15
# oc = 001, a =  8, b = 10, f = 14
# oc = 001, a =  8, b = 11, f = 13
# oc = 001, a =  8, b = 12, f = 12
# oc = 001, a =  8, b = 13, f = 11
# oc = 001, a =  8, b = 14, f = 10
# oc = 001, a =  8, b = 15, f =  9
# oc = 001, a =  9, b =  0, f =  9
# oc = 001, a =  9, b =  1, f =  8
# oc = 001, a =  9, b =  2, f =  7
# oc = 001, a =  9, b =  3, f =  6
# oc = 001, a =  9, b =  4, f =  5
# oc = 001, a =  9, b =  5, f =  4
# oc = 001, a =  9, b =  6, f =  3
# oc = 001, a =  9, b =  7, f =  2
# oc = 001, a =  9, b =  8, f =  1
# oc = 001, a =  9, b =  9, f =  0
# oc = 001, a =  9, b = 10, f = 15
# oc = 001, a =  9, b = 11, f = 14
# oc = 001, a =  9, b = 12, f = 13
# oc = 001, a =  9, b = 13, f = 12
# oc = 001, a =  9, b = 14, f = 11
# oc = 001, a =  9, b = 15, f = 10
# oc = 001, a = 10, b =  0, f = 10
# oc = 001, a = 10, b =  1, f =  9
# oc = 001, a = 10, b =  2, f =  8
# oc = 001, a = 10, b =  3, f =  7
# oc = 001, a = 10, b =  4, f =  6
# oc = 001, a = 10, b =  5, f =  5
# oc = 001, a = 10, b =  6, f =  4
# oc = 001, a = 10, b =  7, f =  3
# oc = 001, a = 10, b =  8, f =  2
# oc = 001, a = 10, b =  9, f =  1
# oc = 001, a = 10, b = 10, f =  0
# oc = 001, a = 10, b = 11, f = 15
# oc = 001, a = 10, b = 12, f = 14
# oc = 001, a = 10, b = 13, f = 13
# oc = 001, a = 10, b = 14, f = 12
# oc = 001, a = 10, b = 15, f = 11
# oc = 001, a = 11, b =  0, f = 11
# oc = 001, a = 11, b =  1, f = 10
# oc = 001, a = 11, b =  2, f =  9
# oc = 001, a = 11, b =  3, f =  8
# oc = 001, a = 11, b =  4, f =  7
# oc = 001, a = 11, b =  5, f =  6
# oc = 001, a = 11, b =  6, f =  5
# oc = 001, a = 11, b =  7, f =  4
# oc = 001, a = 11, b =  8, f =  3
# oc = 001, a = 11, b =  9, f =  2
# oc = 001, a = 11, b = 10, f =  1
# oc = 001, a = 11, b = 11, f =  0
# oc = 001, a = 11, b = 12, f = 15
# oc = 001, a = 11, b = 13, f = 14
# oc = 001, a = 11, b = 14, f = 13
# oc = 001, a = 11, b = 15, f = 12
# oc = 001, a = 12, b =  0, f = 12
# oc = 001, a = 12, b =  1, f = 11
# oc = 001, a = 12, b =  2, f = 10
# oc = 001, a = 12, b =  3, f =  9
# oc = 001, a = 12, b =  4, f =  8
# oc = 001, a = 12, b =  5, f =  7
# oc = 001, a = 12, b =  6, f =  6
# oc = 001, a = 12, b =  7, f =  5
# oc = 001, a = 12, b =  8, f =  4
# oc = 001, a = 12, b =  9, f =  3
# oc = 001, a = 12, b = 10, f =  2
# oc = 001, a = 12, b = 11, f =  1
# oc = 001, a = 12, b = 12, f =  0
# oc = 001, a = 12, b = 13, f = 15
# oc = 001, a = 12, b = 14, f = 14
# oc = 001, a = 12, b = 15, f = 13
# oc = 001, a = 13, b =  0, f = 13
# oc = 001, a = 13, b =  1, f = 12
# oc = 001, a = 13, b =  2, f = 11
# oc = 001, a = 13, b =  3, f = 10
# oc = 001, a = 13, b =  4, f =  9
# oc = 001, a = 13, b =  5, f =  8
# oc = 001, a = 13, b =  6, f =  7
# oc = 001, a = 13, b =  7, f =  6
# oc = 001, a = 13, b =  8, f =  5
# oc = 001, a = 13, b =  9, f =  4
# oc = 001, a = 13, b = 10, f =  3
# oc = 001, a = 13, b = 11, f =  2
# oc = 001, a = 13, b = 12, f =  1
# oc = 001, a = 13, b = 13, f =  0
# oc = 001, a = 13, b = 14, f = 15
# oc = 001, a = 13, b = 15, f = 14
# oc = 001, a = 14, b =  0, f = 14
# oc = 001, a = 14, b =  1, f = 13
# oc = 001, a = 14, b =  2, f = 12
# oc = 001, a = 14, b =  3, f = 11
# oc = 001, a = 14, b =  4, f = 10
# oc = 001, a = 14, b =  5, f =  9
# oc = 001, a = 14, b =  6, f =  8
# oc = 001, a = 14, b =  7, f =  7
# oc = 001, a = 14, b =  8, f =  6
# oc = 001, a = 14, b =  9, f =  5
# oc = 001, a = 14, b = 10, f =  4
# oc = 001, a = 14, b = 11, f =  3
# oc = 001, a = 14, b = 12, f =  2
# oc = 001, a = 14, b = 13, f =  1
# oc = 001, a = 14, b = 14, f =  0
# oc = 001, a = 14, b = 15, f = 15
# oc = 001, a = 15, b =  0, f = 15
# oc = 001, a = 15, b =  1, f = 14
# oc = 001, a = 15, b =  2, f = 13
# oc = 001, a = 15, b =  3, f = 12
# oc = 001, a = 15, b =  4, f = 11
# oc = 001, a = 15, b =  5, f = 10
# oc = 001, a = 15, b =  6, f =  9
# oc = 001, a = 15, b =  7, f =  8
# oc = 001, a = 15, b =  8, f =  7
# oc = 001, a = 15, b =  9, f =  6
# oc = 001, a = 15, b = 10, f =  5
# oc = 001, a = 15, b = 11, f =  4
# oc = 001, a = 15, b = 12, f =  3
# oc = 001, a = 15, b = 13, f =  2
# oc = 001, a = 15, b = 14, f =  1
# oc = 001, a = 15, b = 15, f =  0
# oc = 010, a =  0, b =  0, f =  0
# oc = 010, a =  0, b =  1, f =  0
# oc = 010, a =  0, b =  2, f =  0
# oc = 010, a =  0, b =  3, f =  0
# oc = 010, a =  0, b =  4, f =  0
# oc = 010, a =  0, b =  5, f =  0
# oc = 010, a =  0, b =  6, f =  0
# oc = 010, a =  0, b =  7, f =  0
# oc = 010, a =  0, b =  8, f =  0
# oc = 010, a =  0, b =  9, f =  0
# oc = 010, a =  0, b = 10, f =  0
# oc = 010, a =  0, b = 11, f =  0
# oc = 010, a =  0, b = 12, f =  0
# oc = 010, a =  0, b = 13, f =  0
# oc = 010, a =  0, b = 14, f =  0
# oc = 010, a =  0, b = 15, f =  0
# oc = 010, a =  1, b =  0, f =  0
# oc = 010, a =  1, b =  1, f =  1
# oc = 010, a =  1, b =  2, f =  2
# oc = 010, a =  1, b =  3, f =  3
# oc = 010, a =  1, b =  4, f =  4
# oc = 010, a =  1, b =  5, f =  5
# oc = 010, a =  1, b =  6, f =  6
# oc = 010, a =  1, b =  7, f =  7
# oc = 010, a =  1, b =  8, f =  8
# oc = 010, a =  1, b =  9, f =  9
# oc = 010, a =  1, b = 10, f = 10
# oc = 010, a =  1, b = 11, f = 11
# oc = 010, a =  1, b = 12, f = 12
# oc = 010, a =  1, b = 13, f = 13
# oc = 010, a =  1, b = 14, f = 14
# oc = 010, a =  1, b = 15, f = 15
# oc = 010, a =  2, b =  0, f =  0
# oc = 010, a =  2, b =  1, f =  2
# oc = 010, a =  2, b =  2, f =  4
# oc = 010, a =  2, b =  3, f =  6
# oc = 010, a =  2, b =  4, f =  8
# oc = 010, a =  2, b =  5, f = 10
# oc = 010, a =  2, b =  6, f = 12
# oc = 010, a =  2, b =  7, f = 14
# oc = 010, a =  2, b =  8, f =  0
# oc = 010, a =  2, b =  9, f =  2
# oc = 010, a =  2, b = 10, f =  4
# oc = 010, a =  2, b = 11, f =  6
# oc = 010, a =  2, b = 12, f =  8
# oc = 010, a =  2, b = 13, f = 10
# oc = 010, a =  2, b = 14, f = 12
# oc = 010, a =  2, b = 15, f = 14
# oc = 010, a =  3, b =  0, f =  0
# oc = 010, a =  3, b =  1, f =  3
# oc = 010, a =  3, b =  2, f =  6
# oc = 010, a =  3, b =  3, f =  9
# oc = 010, a =  3, b =  4, f = 12
# oc = 010, a =  3, b =  5, f = 15
# oc = 010, a =  3, b =  6, f =  2
# oc = 010, a =  3, b =  7, f =  5
# oc = 010, a =  3, b =  8, f =  8
# oc = 010, a =  3, b =  9, f = 11
# oc = 010, a =  3, b = 10, f = 14
# oc = 010, a =  3, b = 11, f =  1
# oc = 010, a =  3, b = 12, f =  4
# oc = 010, a =  3, b = 13, f =  7
# oc = 010, a =  3, b = 14, f = 10
# oc = 010, a =  3, b = 15, f = 13
# oc = 010, a =  4, b =  0, f =  0
# oc = 010, a =  4, b =  1, f =  4
# oc = 010, a =  4, b =  2, f =  8
# oc = 010, a =  4, b =  3, f = 12
# oc = 010, a =  4, b =  4, f =  0
# oc = 010, a =  4, b =  5, f =  4
# oc = 010, a =  4, b =  6, f =  8
# oc = 010, a =  4, b =  7, f = 12
# oc = 010, a =  4, b =  8, f =  0
# oc = 010, a =  4, b =  9, f =  4
# oc = 010, a =  4, b = 10, f =  8
# oc = 010, a =  4, b = 11, f = 12
# oc = 010, a =  4, b = 12, f =  0
# oc = 010, a =  4, b = 13, f =  4
# oc = 010, a =  4, b = 14, f =  8
# oc = 010, a =  4, b = 15, f = 12
# oc = 010, a =  5, b =  0, f =  0
# oc = 010, a =  5, b =  1, f =  5
# oc = 010, a =  5, b =  2, f = 10
# oc = 010, a =  5, b =  3, f = 15
# oc = 010, a =  5, b =  4, f =  4
# oc = 010, a =  5, b =  5, f =  9
# oc = 010, a =  5, b =  6, f = 14
# oc = 010, a =  5, b =  7, f =  3
# oc = 010, a =  5, b =  8, f =  8
# oc = 010, a =  5, b =  9, f = 13
# oc = 010, a =  5, b = 10, f =  2
# oc = 010, a =  5, b = 11, f =  7
# oc = 010, a =  5, b = 12, f = 12
# oc = 010, a =  5, b = 13, f =  1
# oc = 010, a =  5, b = 14, f =  6
# oc = 010, a =  5, b = 15, f = 11
# oc = 010, a =  6, b =  0, f =  0
# oc = 010, a =  6, b =  1, f =  6
# oc = 010, a =  6, b =  2, f = 12
# oc = 010, a =  6, b =  3, f =  2
# oc = 010, a =  6, b =  4, f =  8
# oc = 010, a =  6, b =  5, f = 14
# oc = 010, a =  6, b =  6, f =  4
# oc = 010, a =  6, b =  7, f = 10
# oc = 010, a =  6, b =  8, f =  0
# oc = 010, a =  6, b =  9, f =  6
# oc = 010, a =  6, b = 10, f = 12
# oc = 010, a =  6, b = 11, f =  2
# oc = 010, a =  6, b = 12, f =  8
# oc = 010, a =  6, b = 13, f = 14
# oc = 010, a =  6, b = 14, f =  4
# oc = 010, a =  6, b = 15, f = 10
# oc = 010, a =  7, b =  0, f =  0
# oc = 010, a =  7, b =  1, f =  7
# oc = 010, a =  7, b =  2, f = 14
# oc = 010, a =  7, b =  3, f =  5
# oc = 010, a =  7, b =  4, f = 12
# oc = 010, a =  7, b =  5, f =  3
# oc = 010, a =  7, b =  6, f = 10
# oc = 010, a =  7, b =  7, f =  1
# oc = 010, a =  7, b =  8, f =  8
# oc = 010, a =  7, b =  9, f = 15
# oc = 010, a =  7, b = 10, f =  6
# oc = 010, a =  7, b = 11, f = 13
# oc = 010, a =  7, b = 12, f =  4
# oc = 010, a =  7, b = 13, f = 11
# oc = 010, a =  7, b = 14, f =  2
# oc = 010, a =  7, b = 15, f =  9
# oc = 010, a =  8, b =  0, f =  0
# oc = 010, a =  8, b =  1, f =  8
# oc = 010, a =  8, b =  2, f =  0
# oc = 010, a =  8, b =  3, f =  8
# oc = 010, a =  8, b =  4, f =  0
# oc = 010, a =  8, b =  5, f =  8
# oc = 010, a =  8, b =  6, f =  0
# oc = 010, a =  8, b =  7, f =  8
# oc = 010, a =  8, b =  8, f =  0
# oc = 010, a =  8, b =  9, f =  8
# oc = 010, a =  8, b = 10, f =  0
# oc = 010, a =  8, b = 11, f =  8
# oc = 010, a =  8, b = 12, f =  0
# oc = 010, a =  8, b = 13, f =  8
# oc = 010, a =  8, b = 14, f =  0
# oc = 010, a =  8, b = 15, f =  8
# oc = 010, a =  9, b =  0, f =  0
# oc = 010, a =  9, b =  1, f =  9
# oc = 010, a =  9, b =  2, f =  2
# oc = 010, a =  9, b =  3, f = 11
# oc = 010, a =  9, b =  4, f =  4
# oc = 010, a =  9, b =  5, f = 13
# oc = 010, a =  9, b =  6, f =  6
# oc = 010, a =  9, b =  7, f = 15
# oc = 010, a =  9, b =  8, f =  8
# oc = 010, a =  9, b =  9, f =  1
# oc = 010, a =  9, b = 10, f = 10
# oc = 010, a =  9, b = 11, f =  3
# oc = 010, a =  9, b = 12, f = 12
# oc = 010, a =  9, b = 13, f =  5
# oc = 010, a =  9, b = 14, f = 14
# oc = 010, a =  9, b = 15, f =  7
# oc = 010, a = 10, b =  0, f =  0
# oc = 010, a = 10, b =  1, f = 10
# oc = 010, a = 10, b =  2, f =  4
